<svg xmlns="http://www.w3.org/2000/svg" width="76.834" height="51" viewBox="0 0 76.834 51">
  <g id="Group_520" data-name="Group 520" transform="translate(-1786.438 -33)">
    <path id="Path_950" data-name="Path 950" d="M1789.438,34h76.834" transform="translate(-3 0.5)" fill="none" stroke="#fff" stroke-width="3"/>
    <path id="Path_951" data-name="Path 951" d="M1789.438,34h76.834" transform="translate(-3 24.5)" fill="none" stroke="#fff" stroke-width="3"/>
    <path id="Path_952" data-name="Path 952" d="M1789.438,34h76.834" transform="translate(-3 48.5)" fill="none" stroke="#fff" stroke-width="3"/>
  </g>
</svg>
